-- Merging decision tree log ---
manifest
ADDED from C:\Users\wrodriguez\Downloads\sos\app\src\main\AndroidManifest.xml:2:1-43:12
INJECTED from C:\Users\wrodriguez\Downloads\sos\app\src\main\AndroidManifest.xml:2:1-43:12
INJECTED from C:\Users\wrodriguez\Downloads\sos\app\src\main\AndroidManifest.xml:2:1-43:12
INJECTED from C:\Users\wrodriguez\Downloads\sos\app\src\main\AndroidManifest.xml:2:1-43:12
MERGED from [com.android.support:design:28.0.0] C:\Users\wrodriguez\.gradle\caches\transforms-2\files-2.1\18bdcdaf11572c56fedd8c733aaae157\AndroidManifest.xml:17:1-24:12
MERGED from [com.android.support:appcompat-v7:28.0.0] C:\Users\wrodriguez\.gradle\caches\transforms-2\files-2.1\06ad93bf836ab64e8915e93531b84a74\AndroidManifest.xml:17:1-22:12
MERGED from [com.android.support.constraint:constraint-layout:1.1.3] C:\Users\wrodriguez\.gradle\caches\transforms-2\files-2.1\db6a59970a3891f4d0811aaea56e0255\AndroidManifest.xml:2:1-11:12
MERGED from [me.dm7.barcodescanner:zxing:1.9.13] C:\Users\wrodriguez\.gradle\caches\transforms-2\files-2.1\8da7c742f17882818f1afd30c28a9cdf\AndroidManifest.xml:2:1-13:12
MERGED from [com.android.volley:volley:1.1.1] C:\Users\wrodriguez\.gradle\caches\transforms-2\files-2.1\e1dd625c7f962396c26f5b42a3f6625a\AndroidManifest.xml:2:1-11:12
MERGED from [com.google.android.gms:play-services-gcm:10.2.1] C:\Users\wrodriguez\.gradle\caches\transforms-2\files-2.1\87f1b73344edf861983f8da827ed6d51\AndroidManifest.xml:16:1-24:12
MERGED from [me.dm7.barcodescanner:core:1.9.13] C:\Users\wrodriguez\.gradle\caches\transforms-2\files-2.1\b263ad79961db5a43d449b7ff5e38fb9\AndroidManifest.xml:2:1-13:12
MERGED from [com.google.android.gms:play-services-iid:10.2.1] C:\Users\wrodriguez\.gradle\caches\transforms-2\files-2.1\dd80cfae542113147895c19404b7c90a\AndroidManifest.xml:16:1-24:12
MERGED from [com.google.android.gms:play-services-base:10.2.1] C:\Users\wrodriguez\.gradle\caches\transforms-2\files-2.1\d3149efe15004d0c4d0b55de040021c5\AndroidManifest.xml:16:1-21:12
MERGED from [com.google.android.gms:play-services-tasks:10.2.1] C:\Users\wrodriguez\.gradle\caches\transforms-2\files-2.1\8baa00d93d34f6feeb27844842d890e1\AndroidManifest.xml:2:1-5:12
MERGED from [com.google.android.gms:play-services-basement:10.2.1] C:\Users\wrodriguez\.gradle\caches\transforms-2\files-2.1\c413fd9b3452534881604daab28fbe76\AndroidManifest.xml:16:1-23:12
MERGED from [com.android.support:support-v4:28.0.0] C:\Users\wrodriguez\.gradle\caches\transforms-2\files-2.1\6a330cbb998535d56095b5e2b1063e0d\AndroidManifest.xml:17:1-22:12
MERGED from [com.android.support:support-fragment:28.0.0] C:\Users\wrodriguez\.gradle\caches\transforms-2\files-2.1\0ac618549faf667be5c28b66faeb836d\AndroidManifest.xml:17:1-22:12
MERGED from [com.android.support:animated-vector-drawable:28.0.0] C:\Users\wrodriguez\.gradle\caches\transforms-2\files-2.1\aa0cf869ecc66642be9f79f4a0db9dd2\AndroidManifest.xml:17:1-22:12
MERGED from [com.android.support:recyclerview-v7:28.0.0] C:\Users\wrodriguez\.gradle\caches\transforms-2\files-2.1\810f3cc13a853fd4636e820ffd79ee77\AndroidManifest.xml:17:1-22:12
MERGED from [com.android.support:support-core-ui:28.0.0] C:\Users\wrodriguez\.gradle\caches\transforms-2\files-2.1\9f22e80ac41d1acb2840892bfd6d509e\AndroidManifest.xml:17:1-22:12
MERGED from [com.android.support:support-core-utils:28.0.0] C:\Users\wrodriguez\.gradle\caches\transforms-2\files-2.1\fc9e9f4d569775cc2b4d62a36f1a7533\AndroidManifest.xml:17:1-22:12
MERGED from [com.android.support:support-vector-drawable:28.0.0] C:\Users\wrodriguez\.gradle\caches\transforms-2\files-2.1\cf4ac56cbc16c3349c6486fab5ae4c46\AndroidManifest.xml:17:1-22:12
MERGED from [com.android.support:transition:28.0.0] C:\Users\wrodriguez\.gradle\caches\transforms-2\files-2.1\a5b8e6b59137c632e09ed0676c6790ab\AndroidManifest.xml:17:1-22:12
MERGED from [com.android.support:support-media-compat:28.0.0] C:\Users\wrodriguez\.gradle\caches\transforms-2\files-2.1\cd705cc3a66d4e5a970b119db4828fb5\AndroidManifest.xml:17:1-22:12
MERGED from [com.android.support:loader:28.0.0] C:\Users\wrodriguez\.gradle\caches\transforms-2\files-2.1\c1e14d78f986239fe0b22d0e030087ba\AndroidManifest.xml:17:1-22:12
MERGED from [com.android.support:viewpager:28.0.0] C:\Users\wrodriguez\.gradle\caches\transforms-2\files-2.1\9895d09750d515aa7df33af169342858\AndroidManifest.xml:17:1-22:12
MERGED from [com.android.support:coordinatorlayout:28.0.0] C:\Users\wrodriguez\.gradle\caches\transforms-2\files-2.1\878345ff693a189d7c69756c23f14a5a\AndroidManifest.xml:17:1-22:12
MERGED from [com.android.support:drawerlayout:28.0.0] C:\Users\wrodriguez\.gradle\caches\transforms-2\files-2.1\a420662bfe37dcfd5a1af77e64c43a74\AndroidManifest.xml:17:1-22:12
MERGED from [com.android.support:slidingpanelayout:28.0.0] C:\Users\wrodriguez\.gradle\caches\transforms-2\files-2.1\070bab797ddd1cfd1d0a5c8bc9ca9559\AndroidManifest.xml:17:1-22:12
MERGED from [com.android.support:customview:28.0.0] C:\Users\wrodriguez\.gradle\caches\transforms-2\files-2.1\27e16976d1f7f14a390f607ab7b019a7\AndroidManifest.xml:17:1-22:12
MERGED from [com.android.support:swiperefreshlayout:28.0.0] C:\Users\wrodriguez\.gradle\caches\transforms-2\files-2.1\b0cd2df14150851060e76a32644f1e8c\AndroidManifest.xml:17:1-22:12
MERGED from [com.android.support:asynclayoutinflater:28.0.0] C:\Users\wrodriguez\.gradle\caches\transforms-2\files-2.1\76a189f373beacb8cdfbdbff3bf5721c\AndroidManifest.xml:17:1-22:12
MERGED from [com.android.support:support-compat:28.0.0] C:\Users\wrodriguez\.gradle\caches\transforms-2\files-2.1\ab4b16778602c186c19858e09ff7f7e3\AndroidManifest.xml:17:1-24:12
MERGED from [com.android.support:versionedparcelable:28.0.0] C:\Users\wrodriguez\.gradle\caches\transforms-2\files-2.1\efe7b4ba31e366a65979712e87d69e49\AndroidManifest.xml:17:1-25:12
MERGED from [com.android.support:cursoradapter:28.0.0] C:\Users\wrodriguez\.gradle\caches\transforms-2\files-2.1\4be2bd62d02113912056c38e30a68ad7\AndroidManifest.xml:17:1-22:12
MERGED from [com.android.support:cardview-v7:28.0.0] C:\Users\wrodriguez\.gradle\caches\transforms-2\files-2.1\e8c0c8b8b20193d48bac27b423a73fc3\AndroidManifest.xml:17:1-22:12
MERGED from [android.arch.lifecycle:runtime:1.1.1] C:\Users\wrodriguez\.gradle\caches\transforms-2\files-2.1\b17b7f4f9145444b979a5ddbc7f8964f\AndroidManifest.xml:17:1-22:12
MERGED from [com.android.support:documentfile:28.0.0] C:\Users\wrodriguez\.gradle\caches\transforms-2\files-2.1\499cf0c11675aa6c8a3b1c78e21bbd76\AndroidManifest.xml:17:1-22:12
MERGED from [com.android.support:localbroadcastmanager:28.0.0] C:\Users\wrodriguez\.gradle\caches\transforms-2\files-2.1\3320706b01490fd1d1f0c95bf39ee877\AndroidManifest.xml:17:1-22:12
MERGED from [com.android.support:print:28.0.0] C:\Users\wrodriguez\.gradle\caches\transforms-2\files-2.1\bc7354a2f1674ba3d81f72efc50cdef2\AndroidManifest.xml:17:1-22:12
MERGED from [android.arch.lifecycle:viewmodel:1.1.1] C:\Users\wrodriguez\.gradle\caches\transforms-2\files-2.1\94d88401e9b2f46d24f8d0c2ed62587c\AndroidManifest.xml:17:1-22:12
MERGED from [com.android.support:interpolator:28.0.0] C:\Users\wrodriguez\.gradle\caches\transforms-2\files-2.1\7d43885e1ea146e00ddb381dd20906fb\AndroidManifest.xml:17:1-22:12
MERGED from [android.arch.lifecycle:livedata:1.1.1] C:\Users\wrodriguez\.gradle\caches\transforms-2\files-2.1\e2189a6afd1509724425fd249d525de6\AndroidManifest.xml:17:1-22:12
MERGED from [android.arch.lifecycle:livedata-core:1.1.1] C:\Users\wrodriguez\.gradle\caches\transforms-2\files-2.1\7854d670ab6673606c58ec3a4d41e484\AndroidManifest.xml:17:1-22:12
MERGED from [android.arch.core:runtime:1.1.1] C:\Users\wrodriguez\.gradle\caches\transforms-2\files-2.1\af601c6501b5ac126dba9e2fbdbffbf5\AndroidManifest.xml:17:1-22:12
INJECTED from C:\Users\wrodriguez\Downloads\sos\app\src\main\AndroidManifest.xml:2:1-43:12
INJECTED from C:\Users\wrodriguez\Downloads\sos\app\src\main\AndroidManifest.xml:2:1-43:12
INJECTED from C:\Users\wrodriguez\Downloads\sos\app\src\main\AndroidManifest.xml:2:1-43:12
	package
		ADDED from C:\Users\wrodriguez\Downloads\sos\app\src\main\AndroidManifest.xml:3:5-30
		INJECTED from C:\Users\wrodriguez\Downloads\sos\app\src\main\AndroidManifest.xml
		INJECTED from C:\Users\wrodriguez\Downloads\sos\app\src\main\AndroidManifest.xml
	android:versionName
		INJECTED from C:\Users\wrodriguez\Downloads\sos\app\src\main\AndroidManifest.xml
		ADDED from C:\Users\wrodriguez\Downloads\sos\app\src\main\AndroidManifest.xml:2:1-43:12
		INJECTED from C:\Users\wrodriguez\Downloads\sos\app\src\main\AndroidManifest.xml
	android:versionCode
		INJECTED from C:\Users\wrodriguez\Downloads\sos\app\src\main\AndroidManifest.xml
		ADDED from C:\Users\wrodriguez\Downloads\sos\app\src\main\AndroidManifest.xml:2:1-43:12
		INJECTED from C:\Users\wrodriguez\Downloads\sos\app\src\main\AndroidManifest.xml
	xmlns:android
		ADDED from C:\Users\wrodriguez\Downloads\sos\app\src\main\AndroidManifest.xml:2:11-69
uses-permission#android.permission.INTERNET
ADDED from C:\Users\wrodriguez\Downloads\sos\app\src\main\AndroidManifest.xml:5:5-67
MERGED from [com.google.android.gms:play-services-gcm:10.2.1] C:\Users\wrodriguez\.gradle\caches\transforms-2\files-2.1\87f1b73344edf861983f8da827ed6d51\AndroidManifest.xml:21:5-66
MERGED from [com.google.android.gms:play-services-gcm:10.2.1] C:\Users\wrodriguez\.gradle\caches\transforms-2\files-2.1\87f1b73344edf861983f8da827ed6d51\AndroidManifest.xml:21:5-66
MERGED from [com.google.android.gms:play-services-iid:10.2.1] C:\Users\wrodriguez\.gradle\caches\transforms-2\files-2.1\dd80cfae542113147895c19404b7c90a\AndroidManifest.xml:21:5-66
MERGED from [com.google.android.gms:play-services-iid:10.2.1] C:\Users\wrodriguez\.gradle\caches\transforms-2\files-2.1\dd80cfae542113147895c19404b7c90a\AndroidManifest.xml:21:5-66
	android:name
		ADDED from C:\Users\wrodriguez\Downloads\sos\app\src\main\AndroidManifest.xml:5:22-64
uses-permission#android.permission.ACCESS_NETWORK_STATE
ADDED from C:\Users\wrodriguez\Downloads\sos\app\src\main\AndroidManifest.xml:6:5-79
	android:name
		ADDED from C:\Users\wrodriguez\Downloads\sos\app\src\main\AndroidManifest.xml:6:22-76
uses-permission#android.permission.WRITE_EXTERNAL_STORAGE
ADDED from C:\Users\wrodriguez\Downloads\sos\app\src\main\AndroidManifest.xml:7:5-81
	android:name
		ADDED from C:\Users\wrodriguez\Downloads\sos\app\src\main\AndroidManifest.xml:7:22-78
uses-permission#android.permission.READ_EXTERNAL_STORAGE
ADDED from C:\Users\wrodriguez\Downloads\sos\app\src\main\AndroidManifest.xml:8:5-80
	android:name
		ADDED from C:\Users\wrodriguez\Downloads\sos\app\src\main\AndroidManifest.xml:8:22-77
uses-permission#android.permission.CAMERA
ADDED from C:\Users\wrodriguez\Downloads\sos\app\src\main\AndroidManifest.xml:9:5-65
	android:name
		ADDED from C:\Users\wrodriguez\Downloads\sos\app\src\main\AndroidManifest.xml:9:22-62
application
ADDED from C:\Users\wrodriguez\Downloads\sos\app\src\main\AndroidManifest.xml:11:5-41:19
MERGED from [com.android.support:design:28.0.0] C:\Users\wrodriguez\.gradle\caches\transforms-2\files-2.1\18bdcdaf11572c56fedd8c733aaae157\AndroidManifest.xml:22:5-20
MERGED from [com.android.support:design:28.0.0] C:\Users\wrodriguez\.gradle\caches\transforms-2\files-2.1\18bdcdaf11572c56fedd8c733aaae157\AndroidManifest.xml:22:5-20
MERGED from [com.android.support.constraint:constraint-layout:1.1.3] C:\Users\wrodriguez\.gradle\caches\transforms-2\files-2.1\db6a59970a3891f4d0811aaea56e0255\AndroidManifest.xml:9:5-20
MERGED from [com.android.support.constraint:constraint-layout:1.1.3] C:\Users\wrodriguez\.gradle\caches\transforms-2\files-2.1\db6a59970a3891f4d0811aaea56e0255\AndroidManifest.xml:9:5-20
MERGED from [me.dm7.barcodescanner:zxing:1.9.13] C:\Users\wrodriguez\.gradle\caches\transforms-2\files-2.1\8da7c742f17882818f1afd30c28a9cdf\AndroidManifest.xml:11:5-20
MERGED from [me.dm7.barcodescanner:zxing:1.9.13] C:\Users\wrodriguez\.gradle\caches\transforms-2\files-2.1\8da7c742f17882818f1afd30c28a9cdf\AndroidManifest.xml:11:5-20
MERGED from [com.android.volley:volley:1.1.1] C:\Users\wrodriguez\.gradle\caches\transforms-2\files-2.1\e1dd625c7f962396c26f5b42a3f6625a\AndroidManifest.xml:9:5-20
MERGED from [com.android.volley:volley:1.1.1] C:\Users\wrodriguez\.gradle\caches\transforms-2\files-2.1\e1dd625c7f962396c26f5b42a3f6625a\AndroidManifest.xml:9:5-20
MERGED from [com.google.android.gms:play-services-gcm:10.2.1] C:\Users\wrodriguez\.gradle\caches\transforms-2\files-2.1\87f1b73344edf861983f8da827ed6d51\AndroidManifest.xml:23:5-19
MERGED from [com.google.android.gms:play-services-gcm:10.2.1] C:\Users\wrodriguez\.gradle\caches\transforms-2\files-2.1\87f1b73344edf861983f8da827ed6d51\AndroidManifest.xml:23:5-19
MERGED from [me.dm7.barcodescanner:core:1.9.13] C:\Users\wrodriguez\.gradle\caches\transforms-2\files-2.1\b263ad79961db5a43d449b7ff5e38fb9\AndroidManifest.xml:11:5-20
MERGED from [me.dm7.barcodescanner:core:1.9.13] C:\Users\wrodriguez\.gradle\caches\transforms-2\files-2.1\b263ad79961db5a43d449b7ff5e38fb9\AndroidManifest.xml:11:5-20
MERGED from [com.google.android.gms:play-services-iid:10.2.1] C:\Users\wrodriguez\.gradle\caches\transforms-2\files-2.1\dd80cfae542113147895c19404b7c90a\AndroidManifest.xml:23:5-19
MERGED from [com.google.android.gms:play-services-iid:10.2.1] C:\Users\wrodriguez\.gradle\caches\transforms-2\files-2.1\dd80cfae542113147895c19404b7c90a\AndroidManifest.xml:23:5-19
MERGED from [com.google.android.gms:play-services-base:10.2.1] C:\Users\wrodriguez\.gradle\caches\transforms-2\files-2.1\d3149efe15004d0c4d0b55de040021c5\AndroidManifest.xml:18:5-20:19
MERGED from [com.google.android.gms:play-services-base:10.2.1] C:\Users\wrodriguez\.gradle\caches\transforms-2\files-2.1\d3149efe15004d0c4d0b55de040021c5\AndroidManifest.xml:18:5-20:19
MERGED from [com.google.android.gms:play-services-tasks:10.2.1] C:\Users\wrodriguez\.gradle\caches\transforms-2\files-2.1\8baa00d93d34f6feeb27844842d890e1\AndroidManifest.xml:4:5-19
MERGED from [com.google.android.gms:play-services-tasks:10.2.1] C:\Users\wrodriguez\.gradle\caches\transforms-2\files-2.1\8baa00d93d34f6feeb27844842d890e1\AndroidManifest.xml:4:5-19
MERGED from [com.google.android.gms:play-services-basement:10.2.1] C:\Users\wrodriguez\.gradle\caches\transforms-2\files-2.1\c413fd9b3452534881604daab28fbe76\AndroidManifest.xml:19:5-21:19
MERGED from [com.google.android.gms:play-services-basement:10.2.1] C:\Users\wrodriguez\.gradle\caches\transforms-2\files-2.1\c413fd9b3452534881604daab28fbe76\AndroidManifest.xml:19:5-21:19
MERGED from [com.android.support:support-compat:28.0.0] C:\Users\wrodriguez\.gradle\caches\transforms-2\files-2.1\ab4b16778602c186c19858e09ff7f7e3\AndroidManifest.xml:22:5-94
MERGED from [com.android.support:support-compat:28.0.0] C:\Users\wrodriguez\.gradle\caches\transforms-2\files-2.1\ab4b16778602c186c19858e09ff7f7e3\AndroidManifest.xml:22:5-94
MERGED from [com.android.support:versionedparcelable:28.0.0] C:\Users\wrodriguez\.gradle\caches\transforms-2\files-2.1\efe7b4ba31e366a65979712e87d69e49\AndroidManifest.xml:22:5-23:19
MERGED from [com.android.support:versionedparcelable:28.0.0] C:\Users\wrodriguez\.gradle\caches\transforms-2\files-2.1\efe7b4ba31e366a65979712e87d69e49\AndroidManifest.xml:22:5-23:19
	android:appComponentFactory
		ADDED from [com.android.support:support-compat:28.0.0] C:\Users\wrodriguez\.gradle\caches\transforms-2\files-2.1\ab4b16778602c186c19858e09ff7f7e3\AndroidManifest.xml:22:18-91
	android:supportsRtl
		ADDED from C:\Users\wrodriguez\Downloads\sos\app\src\main\AndroidManifest.xml:15:9-35
	android:label
		ADDED from C:\Users\wrodriguez\Downloads\sos\app\src\main\AndroidManifest.xml:14:9-41
	android:icon
		ADDED from C:\Users\wrodriguez\Downloads\sos\app\src\main\AndroidManifest.xml:13:9-44
	android:allowBackup
		ADDED from C:\Users\wrodriguez\Downloads\sos\app\src\main\AndroidManifest.xml:12:9-35
	android:theme
		ADDED from C:\Users\wrodriguez\Downloads\sos\app\src\main\AndroidManifest.xml:16:9-40
	android:usesCleartextTraffic
		ADDED from C:\Users\wrodriguez\Downloads\sos\app\src\main\AndroidManifest.xml:17:9-44
activity#com.sostrackapp.Ui.Soporte
ADDED from C:\Users\wrodriguez\Downloads\sos\app\src\main\AndroidManifest.xml:18:9-19:58
	android:theme
		ADDED from C:\Users\wrodriguez\Downloads\sos\app\src\main\AndroidManifest.xml:19:13-56
	android:name
		ADDED from C:\Users\wrodriguez\Downloads\sos\app\src\main\AndroidManifest.xml:18:19-45
activity#com.sostrackapp.Ui.PoliticaUso
ADDED from C:\Users\wrodriguez\Downloads\sos\app\src\main\AndroidManifest.xml:20:9-23:59
	android:screenOrientation
		ADDED from C:\Users\wrodriguez\Downloads\sos\app\src\main\AndroidManifest.xml:22:13-49
	android:theme
		ADDED from C:\Users\wrodriguez\Downloads\sos\app\src\main\AndroidManifest.xml:23:13-56
	android:name
		ADDED from C:\Users\wrodriguez\Downloads\sos\app\src\main\AndroidManifest.xml:21:13-43
activity#com.sostrackapp.Ui.Main
ADDED from C:\Users\wrodriguez\Downloads\sos\app\src\main\AndroidManifest.xml:24:9-27:59
	android:screenOrientation
		ADDED from C:\Users\wrodriguez\Downloads\sos\app\src\main\AndroidManifest.xml:26:13-49
	android:theme
		ADDED from C:\Users\wrodriguez\Downloads\sos\app\src\main\AndroidManifest.xml:27:13-56
	android:name
		ADDED from C:\Users\wrodriguez\Downloads\sos\app\src\main\AndroidManifest.xml:25:13-36
service#com.sostrackapp.Service.DataService
ADDED from C:\Users\wrodriguez\Downloads\sos\app\src\main\AndroidManifest.xml:29:9-56
	android:name
		ADDED from C:\Users\wrodriguez\Downloads\sos\app\src\main\AndroidManifest.xml:29:18-53
activity#com.sostrackapp.Ui.LoginActivity
ADDED from C:\Users\wrodriguez\Downloads\sos\app\src\main\AndroidManifest.xml:31:9-39:20
	android:theme
		ADDED from C:\Users\wrodriguez\Downloads\sos\app\src\main\AndroidManifest.xml:33:13-56
	android:name
		ADDED from C:\Users\wrodriguez\Downloads\sos\app\src\main\AndroidManifest.xml:32:13-45
intent-filter#action:name:android.intent.action.MAIN+category:name:android.intent.category.LAUNCHER
ADDED from C:\Users\wrodriguez\Downloads\sos\app\src\main\AndroidManifest.xml:34:13-38:29
action#android.intent.action.MAIN
ADDED from C:\Users\wrodriguez\Downloads\sos\app\src\main\AndroidManifest.xml:35:17-69
	android:name
		ADDED from C:\Users\wrodriguez\Downloads\sos\app\src\main\AndroidManifest.xml:35:25-66
category#android.intent.category.LAUNCHER
ADDED from C:\Users\wrodriguez\Downloads\sos\app\src\main\AndroidManifest.xml:37:17-77
	android:name
		ADDED from C:\Users\wrodriguez\Downloads\sos\app\src\main\AndroidManifest.xml:37:27-74
activity#com.sostrackapp.Ui.SimpleScannerActivity
ADDED from C:\Users\wrodriguez\Downloads\sos\app\src\main\AndroidManifest.xml:40:9-62
	android:name
		ADDED from C:\Users\wrodriguez\Downloads\sos\app\src\main\AndroidManifest.xml:40:19-59
uses-sdk
INJECTED from C:\Users\wrodriguez\Downloads\sos\app\src\main\AndroidManifest.xml reason: use-sdk injection requested
INJECTED from C:\Users\wrodriguez\Downloads\sos\app\src\main\AndroidManifest.xml
INJECTED from C:\Users\wrodriguez\Downloads\sos\app\src\main\AndroidManifest.xml
MERGED from [com.android.support:design:28.0.0] C:\Users\wrodriguez\.gradle\caches\transforms-2\files-2.1\18bdcdaf11572c56fedd8c733aaae157\AndroidManifest.xml:20:5-44
MERGED from [com.android.support:design:28.0.0] C:\Users\wrodriguez\.gradle\caches\transforms-2\files-2.1\18bdcdaf11572c56fedd8c733aaae157\AndroidManifest.xml:20:5-44
MERGED from [com.android.support:appcompat-v7:28.0.0] C:\Users\wrodriguez\.gradle\caches\transforms-2\files-2.1\06ad93bf836ab64e8915e93531b84a74\AndroidManifest.xml:20:5-44
MERGED from [com.android.support:appcompat-v7:28.0.0] C:\Users\wrodriguez\.gradle\caches\transforms-2\files-2.1\06ad93bf836ab64e8915e93531b84a74\AndroidManifest.xml:20:5-44
MERGED from [com.android.support.constraint:constraint-layout:1.1.3] C:\Users\wrodriguez\.gradle\caches\transforms-2\files-2.1\db6a59970a3891f4d0811aaea56e0255\AndroidManifest.xml:5:5-7:41
MERGED from [com.android.support.constraint:constraint-layout:1.1.3] C:\Users\wrodriguez\.gradle\caches\transforms-2\files-2.1\db6a59970a3891f4d0811aaea56e0255\AndroidManifest.xml:5:5-7:41
MERGED from [me.dm7.barcodescanner:zxing:1.9.13] C:\Users\wrodriguez\.gradle\caches\transforms-2\files-2.1\8da7c742f17882818f1afd30c28a9cdf\AndroidManifest.xml:7:5-9:41
MERGED from [me.dm7.barcodescanner:zxing:1.9.13] C:\Users\wrodriguez\.gradle\caches\transforms-2\files-2.1\8da7c742f17882818f1afd30c28a9cdf\AndroidManifest.xml:7:5-9:41
MERGED from [com.android.volley:volley:1.1.1] C:\Users\wrodriguez\.gradle\caches\transforms-2\files-2.1\e1dd625c7f962396c26f5b42a3f6625a\AndroidManifest.xml:7:5-43
MERGED from [com.android.volley:volley:1.1.1] C:\Users\wrodriguez\.gradle\caches\transforms-2\files-2.1\e1dd625c7f962396c26f5b42a3f6625a\AndroidManifest.xml:7:5-43
MERGED from [com.google.android.gms:play-services-gcm:10.2.1] C:\Users\wrodriguez\.gradle\caches\transforms-2\files-2.1\87f1b73344edf861983f8da827ed6d51\AndroidManifest.xml:17:5-43
MERGED from [com.google.android.gms:play-services-gcm:10.2.1] C:\Users\wrodriguez\.gradle\caches\transforms-2\files-2.1\87f1b73344edf861983f8da827ed6d51\AndroidManifest.xml:17:5-43
MERGED from [me.dm7.barcodescanner:core:1.9.13] C:\Users\wrodriguez\.gradle\caches\transforms-2\files-2.1\b263ad79961db5a43d449b7ff5e38fb9\AndroidManifest.xml:7:5-9:41
MERGED from [me.dm7.barcodescanner:core:1.9.13] C:\Users\wrodriguez\.gradle\caches\transforms-2\files-2.1\b263ad79961db5a43d449b7ff5e38fb9\AndroidManifest.xml:7:5-9:41
MERGED from [com.google.android.gms:play-services-iid:10.2.1] C:\Users\wrodriguez\.gradle\caches\transforms-2\files-2.1\dd80cfae542113147895c19404b7c90a\AndroidManifest.xml:17:5-43
MERGED from [com.google.android.gms:play-services-iid:10.2.1] C:\Users\wrodriguez\.gradle\caches\transforms-2\files-2.1\dd80cfae542113147895c19404b7c90a\AndroidManifest.xml:17:5-43
MERGED from [com.google.android.gms:play-services-base:10.2.1] C:\Users\wrodriguez\.gradle\caches\transforms-2\files-2.1\d3149efe15004d0c4d0b55de040021c5\AndroidManifest.xml:17:5-43
MERGED from [com.google.android.gms:play-services-base:10.2.1] C:\Users\wrodriguez\.gradle\caches\transforms-2\files-2.1\d3149efe15004d0c4d0b55de040021c5\AndroidManifest.xml:17:5-43
MERGED from [com.google.android.gms:play-services-tasks:10.2.1] C:\Users\wrodriguez\.gradle\caches\transforms-2\files-2.1\8baa00d93d34f6feeb27844842d890e1\AndroidManifest.xml:3:5-43
MERGED from [com.google.android.gms:play-services-tasks:10.2.1] C:\Users\wrodriguez\.gradle\caches\transforms-2\files-2.1\8baa00d93d34f6feeb27844842d890e1\AndroidManifest.xml:3:5-43
MERGED from [com.google.android.gms:play-services-basement:10.2.1] C:\Users\wrodriguez\.gradle\caches\transforms-2\files-2.1\c413fd9b3452534881604daab28fbe76\AndroidManifest.xml:17:5-43
MERGED from [com.google.android.gms:play-services-basement:10.2.1] C:\Users\wrodriguez\.gradle\caches\transforms-2\files-2.1\c413fd9b3452534881604daab28fbe76\AndroidManifest.xml:17:5-43
MERGED from [com.android.support:support-v4:28.0.0] C:\Users\wrodriguez\.gradle\caches\transforms-2\files-2.1\6a330cbb998535d56095b5e2b1063e0d\AndroidManifest.xml:20:5-44
MERGED from [com.android.support:support-v4:28.0.0] C:\Users\wrodriguez\.gradle\caches\transforms-2\files-2.1\6a330cbb998535d56095b5e2b1063e0d\AndroidManifest.xml:20:5-44
MERGED from [com.android.support:support-fragment:28.0.0] C:\Users\wrodriguez\.gradle\caches\transforms-2\files-2.1\0ac618549faf667be5c28b66faeb836d\AndroidManifest.xml:20:5-44
MERGED from [com.android.support:support-fragment:28.0.0] C:\Users\wrodriguez\.gradle\caches\transforms-2\files-2.1\0ac618549faf667be5c28b66faeb836d\AndroidManifest.xml:20:5-44
MERGED from [com.android.support:animated-vector-drawable:28.0.0] C:\Users\wrodriguez\.gradle\caches\transforms-2\files-2.1\aa0cf869ecc66642be9f79f4a0db9dd2\AndroidManifest.xml:20:5-44
MERGED from [com.android.support:animated-vector-drawable:28.0.0] C:\Users\wrodriguez\.gradle\caches\transforms-2\files-2.1\aa0cf869ecc66642be9f79f4a0db9dd2\AndroidManifest.xml:20:5-44
MERGED from [com.android.support:recyclerview-v7:28.0.0] C:\Users\wrodriguez\.gradle\caches\transforms-2\files-2.1\810f3cc13a853fd4636e820ffd79ee77\AndroidManifest.xml:20:5-44
MERGED from [com.android.support:recyclerview-v7:28.0.0] C:\Users\wrodriguez\.gradle\caches\transforms-2\files-2.1\810f3cc13a853fd4636e820ffd79ee77\AndroidManifest.xml:20:5-44
MERGED from [com.android.support:support-core-ui:28.0.0] C:\Users\wrodriguez\.gradle\caches\transforms-2\files-2.1\9f22e80ac41d1acb2840892bfd6d509e\AndroidManifest.xml:20:5-44
MERGED from [com.android.support:support-core-ui:28.0.0] C:\Users\wrodriguez\.gradle\caches\transforms-2\files-2.1\9f22e80ac41d1acb2840892bfd6d509e\AndroidManifest.xml:20:5-44
MERGED from [com.android.support:support-core-utils:28.0.0] C:\Users\wrodriguez\.gradle\caches\transforms-2\files-2.1\fc9e9f4d569775cc2b4d62a36f1a7533\AndroidManifest.xml:20:5-44
MERGED from [com.android.support:support-core-utils:28.0.0] C:\Users\wrodriguez\.gradle\caches\transforms-2\files-2.1\fc9e9f4d569775cc2b4d62a36f1a7533\AndroidManifest.xml:20:5-44
MERGED from [com.android.support:support-vector-drawable:28.0.0] C:\Users\wrodriguez\.gradle\caches\transforms-2\files-2.1\cf4ac56cbc16c3349c6486fab5ae4c46\AndroidManifest.xml:20:5-44
MERGED from [com.android.support:support-vector-drawable:28.0.0] C:\Users\wrodriguez\.gradle\caches\transforms-2\files-2.1\cf4ac56cbc16c3349c6486fab5ae4c46\AndroidManifest.xml:20:5-44
MERGED from [com.android.support:transition:28.0.0] C:\Users\wrodriguez\.gradle\caches\transforms-2\files-2.1\a5b8e6b59137c632e09ed0676c6790ab\AndroidManifest.xml:20:5-44
MERGED from [com.android.support:transition:28.0.0] C:\Users\wrodriguez\.gradle\caches\transforms-2\files-2.1\a5b8e6b59137c632e09ed0676c6790ab\AndroidManifest.xml:20:5-44
MERGED from [com.android.support:support-media-compat:28.0.0] C:\Users\wrodriguez\.gradle\caches\transforms-2\files-2.1\cd705cc3a66d4e5a970b119db4828fb5\AndroidManifest.xml:20:5-44
MERGED from [com.android.support:support-media-compat:28.0.0] C:\Users\wrodriguez\.gradle\caches\transforms-2\files-2.1\cd705cc3a66d4e5a970b119db4828fb5\AndroidManifest.xml:20:5-44
MERGED from [com.android.support:loader:28.0.0] C:\Users\wrodriguez\.gradle\caches\transforms-2\files-2.1\c1e14d78f986239fe0b22d0e030087ba\AndroidManifest.xml:20:5-44
MERGED from [com.android.support:loader:28.0.0] C:\Users\wrodriguez\.gradle\caches\transforms-2\files-2.1\c1e14d78f986239fe0b22d0e030087ba\AndroidManifest.xml:20:5-44
MERGED from [com.android.support:viewpager:28.0.0] C:\Users\wrodriguez\.gradle\caches\transforms-2\files-2.1\9895d09750d515aa7df33af169342858\AndroidManifest.xml:20:5-44
MERGED from [com.android.support:viewpager:28.0.0] C:\Users\wrodriguez\.gradle\caches\transforms-2\files-2.1\9895d09750d515aa7df33af169342858\AndroidManifest.xml:20:5-44
MERGED from [com.android.support:coordinatorlayout:28.0.0] C:\Users\wrodriguez\.gradle\caches\transforms-2\files-2.1\878345ff693a189d7c69756c23f14a5a\AndroidManifest.xml:20:5-44
MERGED from [com.android.support:coordinatorlayout:28.0.0] C:\Users\wrodriguez\.gradle\caches\transforms-2\files-2.1\878345ff693a189d7c69756c23f14a5a\AndroidManifest.xml:20:5-44
MERGED from [com.android.support:drawerlayout:28.0.0] C:\Users\wrodriguez\.gradle\caches\transforms-2\files-2.1\a420662bfe37dcfd5a1af77e64c43a74\AndroidManifest.xml:20:5-44
MERGED from [com.android.support:drawerlayout:28.0.0] C:\Users\wrodriguez\.gradle\caches\transforms-2\files-2.1\a420662bfe37dcfd5a1af77e64c43a74\AndroidManifest.xml:20:5-44
MERGED from [com.android.support:slidingpanelayout:28.0.0] C:\Users\wrodriguez\.gradle\caches\transforms-2\files-2.1\070bab797ddd1cfd1d0a5c8bc9ca9559\AndroidManifest.xml:20:5-44
MERGED from [com.android.support:slidingpanelayout:28.0.0] C:\Users\wrodriguez\.gradle\caches\transforms-2\files-2.1\070bab797ddd1cfd1d0a5c8bc9ca9559\AndroidManifest.xml:20:5-44
MERGED from [com.android.support:customview:28.0.0] C:\Users\wrodriguez\.gradle\caches\transforms-2\files-2.1\27e16976d1f7f14a390f607ab7b019a7\AndroidManifest.xml:20:5-44
MERGED from [com.android.support:customview:28.0.0] C:\Users\wrodriguez\.gradle\caches\transforms-2\files-2.1\27e16976d1f7f14a390f607ab7b019a7\AndroidManifest.xml:20:5-44
MERGED from [com.android.support:swiperefreshlayout:28.0.0] C:\Users\wrodriguez\.gradle\caches\transforms-2\files-2.1\b0cd2df14150851060e76a32644f1e8c\AndroidManifest.xml:20:5-44
MERGED from [com.android.support:swiperefreshlayout:28.0.0] C:\Users\wrodriguez\.gradle\caches\transforms-2\files-2.1\b0cd2df14150851060e76a32644f1e8c\AndroidManifest.xml:20:5-44
MERGED from [com.android.support:asynclayoutinflater:28.0.0] C:\Users\wrodriguez\.gradle\caches\transforms-2\files-2.1\76a189f373beacb8cdfbdbff3bf5721c\AndroidManifest.xml:20:5-44
MERGED from [com.android.support:asynclayoutinflater:28.0.0] C:\Users\wrodriguez\.gradle\caches\transforms-2\files-2.1\76a189f373beacb8cdfbdbff3bf5721c\AndroidManifest.xml:20:5-44
MERGED from [com.android.support:support-compat:28.0.0] C:\Users\wrodriguez\.gradle\caches\transforms-2\files-2.1\ab4b16778602c186c19858e09ff7f7e3\AndroidManifest.xml:20:5-44
MERGED from [com.android.support:support-compat:28.0.0] C:\Users\wrodriguez\.gradle\caches\transforms-2\files-2.1\ab4b16778602c186c19858e09ff7f7e3\AndroidManifest.xml:20:5-44
MERGED from [com.android.support:versionedparcelable:28.0.0] C:\Users\wrodriguez\.gradle\caches\transforms-2\files-2.1\efe7b4ba31e366a65979712e87d69e49\AndroidManifest.xml:20:5-44
MERGED from [com.android.support:versionedparcelable:28.0.0] C:\Users\wrodriguez\.gradle\caches\transforms-2\files-2.1\efe7b4ba31e366a65979712e87d69e49\AndroidManifest.xml:20:5-44
MERGED from [com.android.support:cursoradapter:28.0.0] C:\Users\wrodriguez\.gradle\caches\transforms-2\files-2.1\4be2bd62d02113912056c38e30a68ad7\AndroidManifest.xml:20:5-44
MERGED from [com.android.support:cursoradapter:28.0.0] C:\Users\wrodriguez\.gradle\caches\transforms-2\files-2.1\4be2bd62d02113912056c38e30a68ad7\AndroidManifest.xml:20:5-44
MERGED from [com.android.support:cardview-v7:28.0.0] C:\Users\wrodriguez\.gradle\caches\transforms-2\files-2.1\e8c0c8b8b20193d48bac27b423a73fc3\AndroidManifest.xml:20:5-44
MERGED from [com.android.support:cardview-v7:28.0.0] C:\Users\wrodriguez\.gradle\caches\transforms-2\files-2.1\e8c0c8b8b20193d48bac27b423a73fc3\AndroidManifest.xml:20:5-44
MERGED from [android.arch.lifecycle:runtime:1.1.1] C:\Users\wrodriguez\.gradle\caches\transforms-2\files-2.1\b17b7f4f9145444b979a5ddbc7f8964f\AndroidManifest.xml:20:5-44
MERGED from [android.arch.lifecycle:runtime:1.1.1] C:\Users\wrodriguez\.gradle\caches\transforms-2\files-2.1\b17b7f4f9145444b979a5ddbc7f8964f\AndroidManifest.xml:20:5-44
MERGED from [com.android.support:documentfile:28.0.0] C:\Users\wrodriguez\.gradle\caches\transforms-2\files-2.1\499cf0c11675aa6c8a3b1c78e21bbd76\AndroidManifest.xml:20:5-44
MERGED from [com.android.support:documentfile:28.0.0] C:\Users\wrodriguez\.gradle\caches\transforms-2\files-2.1\499cf0c11675aa6c8a3b1c78e21bbd76\AndroidManifest.xml:20:5-44
MERGED from [com.android.support:localbroadcastmanager:28.0.0] C:\Users\wrodriguez\.gradle\caches\transforms-2\files-2.1\3320706b01490fd1d1f0c95bf39ee877\AndroidManifest.xml:20:5-44
MERGED from [com.android.support:localbroadcastmanager:28.0.0] C:\Users\wrodriguez\.gradle\caches\transforms-2\files-2.1\3320706b01490fd1d1f0c95bf39ee877\AndroidManifest.xml:20:5-44
MERGED from [com.android.support:print:28.0.0] C:\Users\wrodriguez\.gradle\caches\transforms-2\files-2.1\bc7354a2f1674ba3d81f72efc50cdef2\AndroidManifest.xml:20:5-44
MERGED from [com.android.support:print:28.0.0] C:\Users\wrodriguez\.gradle\caches\transforms-2\files-2.1\bc7354a2f1674ba3d81f72efc50cdef2\AndroidManifest.xml:20:5-44
MERGED from [android.arch.lifecycle:viewmodel:1.1.1] C:\Users\wrodriguez\.gradle\caches\transforms-2\files-2.1\94d88401e9b2f46d24f8d0c2ed62587c\AndroidManifest.xml:20:5-44
MERGED from [android.arch.lifecycle:viewmodel:1.1.1] C:\Users\wrodriguez\.gradle\caches\transforms-2\files-2.1\94d88401e9b2f46d24f8d0c2ed62587c\AndroidManifest.xml:20:5-44
MERGED from [com.android.support:interpolator:28.0.0] C:\Users\wrodriguez\.gradle\caches\transforms-2\files-2.1\7d43885e1ea146e00ddb381dd20906fb\AndroidManifest.xml:20:5-44
MERGED from [com.android.support:interpolator:28.0.0] C:\Users\wrodriguez\.gradle\caches\transforms-2\files-2.1\7d43885e1ea146e00ddb381dd20906fb\AndroidManifest.xml:20:5-44
MERGED from [android.arch.lifecycle:livedata:1.1.1] C:\Users\wrodriguez\.gradle\caches\transforms-2\files-2.1\e2189a6afd1509724425fd249d525de6\AndroidManifest.xml:20:5-44
MERGED from [android.arch.lifecycle:livedata:1.1.1] C:\Users\wrodriguez\.gradle\caches\transforms-2\files-2.1\e2189a6afd1509724425fd249d525de6\AndroidManifest.xml:20:5-44
MERGED from [android.arch.lifecycle:livedata-core:1.1.1] C:\Users\wrodriguez\.gradle\caches\transforms-2\files-2.1\7854d670ab6673606c58ec3a4d41e484\AndroidManifest.xml:20:5-44
MERGED from [android.arch.lifecycle:livedata-core:1.1.1] C:\Users\wrodriguez\.gradle\caches\transforms-2\files-2.1\7854d670ab6673606c58ec3a4d41e484\AndroidManifest.xml:20:5-44
MERGED from [android.arch.core:runtime:1.1.1] C:\Users\wrodriguez\.gradle\caches\transforms-2\files-2.1\af601c6501b5ac126dba9e2fbdbffbf5\AndroidManifest.xml:20:5-44
MERGED from [android.arch.core:runtime:1.1.1] C:\Users\wrodriguez\.gradle\caches\transforms-2\files-2.1\af601c6501b5ac126dba9e2fbdbffbf5\AndroidManifest.xml:20:5-44
INJECTED from C:\Users\wrodriguez\Downloads\sos\app\src\main\AndroidManifest.xml
INJECTED from C:\Users\wrodriguez\Downloads\sos\app\src\main\AndroidManifest.xml
	android:targetSdkVersion
		INJECTED from C:\Users\wrodriguez\Downloads\sos\app\src\main\AndroidManifest.xml
		ADDED from C:\Users\wrodriguez\Downloads\sos\app\src\main\AndroidManifest.xml
		INJECTED from C:\Users\wrodriguez\Downloads\sos\app\src\main\AndroidManifest.xml
	android:minSdkVersion
		INJECTED from C:\Users\wrodriguez\Downloads\sos\app\src\main\AndroidManifest.xml
		ADDED from C:\Users\wrodriguez\Downloads\sos\app\src\main\AndroidManifest.xml
		INJECTED from C:\Users\wrodriguez\Downloads\sos\app\src\main\AndroidManifest.xml
uses-permission#com.google.android.c2dm.permission.RECEIVE
ADDED from [com.google.android.gms:play-services-gcm:10.2.1] C:\Users\wrodriguez\.gradle\caches\transforms-2\files-2.1\87f1b73344edf861983f8da827ed6d51\AndroidManifest.xml:20:5-81
MERGED from [com.google.android.gms:play-services-iid:10.2.1] C:\Users\wrodriguez\.gradle\caches\transforms-2\files-2.1\dd80cfae542113147895c19404b7c90a\AndroidManifest.xml:20:5-81
MERGED from [com.google.android.gms:play-services-iid:10.2.1] C:\Users\wrodriguez\.gradle\caches\transforms-2\files-2.1\dd80cfae542113147895c19404b7c90a\AndroidManifest.xml:20:5-81
	android:name
		ADDED from [com.google.android.gms:play-services-gcm:10.2.1] C:\Users\wrodriguez\.gradle\caches\transforms-2\files-2.1\87f1b73344edf861983f8da827ed6d51\AndroidManifest.xml:20:22-79
activity#com.google.android.gms.common.api.GoogleApiActivity
ADDED from [com.google.android.gms:play-services-base:10.2.1] C:\Users\wrodriguez\.gradle\caches\transforms-2\files-2.1\d3149efe15004d0c4d0b55de040021c5\AndroidManifest.xml:19:9-172
	android:exported
		ADDED from [com.google.android.gms:play-services-base:10.2.1] C:\Users\wrodriguez\.gradle\caches\transforms-2\files-2.1\d3149efe15004d0c4d0b55de040021c5\AndroidManifest.xml:19:146-170
	android:theme
		ADDED from [com.google.android.gms:play-services-base:10.2.1] C:\Users\wrodriguez\.gradle\caches\transforms-2\files-2.1\d3149efe15004d0c4d0b55de040021c5\AndroidManifest.xml:19:86-145
	android:name
		ADDED from [com.google.android.gms:play-services-base:10.2.1] C:\Users\wrodriguez\.gradle\caches\transforms-2\files-2.1\d3149efe15004d0c4d0b55de040021c5\AndroidManifest.xml:19:19-85
meta-data#com.google.android.gms.version
ADDED from [com.google.android.gms:play-services-basement:10.2.1] C:\Users\wrodriguez\.gradle\caches\transforms-2\files-2.1\c413fd9b3452534881604daab28fbe76\AndroidManifest.xml:20:9-121
	android:value
		ADDED from [com.google.android.gms:play-services-basement:10.2.1] C:\Users\wrodriguez\.gradle\caches\transforms-2\files-2.1\c413fd9b3452534881604daab28fbe76\AndroidManifest.xml:20:66-119
	android:name
		ADDED from [com.google.android.gms:play-services-basement:10.2.1] C:\Users\wrodriguez\.gradle\caches\transforms-2\files-2.1\c413fd9b3452534881604daab28fbe76\AndroidManifest.xml:20:20-65
